<?xml version="1.0" encoding="utf-8"?>
<!-- Generator: Adobe Illustrator 19.1.0, SVG Export Plug-In . SVG Version: 6.00 Build 0)  -->
<!DOCTYPE svg PUBLIC "-//W3C//DTD SVG 1.1//EN" "http://www.w3.org/Graphics/SVG/1.1/DTD/svg11.dtd">
<svg version="1.1" id="Layer_1" xmlns="http://www.w3.org/2000/svg" xmlns:xlink="http://www.w3.org/1999/xlink" x="0px" y="0px"
	 width="24px" height="24px" viewBox="-1 3 24 24" style="enable-background:new -1 3 24 24;" xml:space="preserve">
<style type="text/css">
	.st0{fill:#B0B0B0;}
</style>
<path class="st0" d="M11,10c2.8,0,5,2.2,5,5c0,0.6-0.1,1.3-0.4,1.8l2.9,2.9c1.5-1.3,2.7-2.9,3.4-4.8c-1.7-4.4-6-7.5-11-7.5
	c-1.4,0-2.7,0.2-4,0.7l2.2,2.2C9.7,10.1,10.4,10,11,10z M1,7.3l2.3,2.3L3.7,10c-1.7,1.3-3,3-3.7,5c1.7,4.4,6,7.5,11,7.5
	c1.6,0,3-0.3,4.4-0.8l0.4,0.4l2.9,2.9l1.3-1.3L2.3,6L1,7.3z M6.5,12.8L8,14.4c0,0.2,0,0.4,0,0.6c0,1.7,1.3,3,3,3
	c0.2,0,0.4,0,0.6-0.1l1.6,1.5C12.5,19.8,11.8,20,11,20c-2.8,0-5-2.2-5-5C6,14.2,6.2,13.5,6.5,12.8z M10.8,12l3.1,3.1v-0.2
	C13.9,13.2,12.6,11.9,10.8,12L10.8,12z"/>
</svg>
