<?xml version="1.0" encoding="utf-8"?>
<!-- Generator: Adobe Illustrator 20.0.0, SVG Export Plug-In . SVG Version: 6.00 Build 0)  -->
<!DOCTYPE svg PUBLIC "-//W3C//DTD SVG 1.1//EN" "http://www.w3.org/Graphics/SVG/1.1/DTD/svg11.dtd">
<svg version="1.1" id="Layer_1" xmlns="http://www.w3.org/2000/svg" xmlns:xlink="http://www.w3.org/1999/xlink" x="0px" y="0px"
	 width="100px" height="100px" viewBox="0 0 100 100" style="enable-background:new 0 0 100 100;" xml:space="preserve">
<path d="M50,69.6c-0.6,0-1.2-0.2-1.7-0.5l-47-33.2c-1.3-0.9-1.7-2.8-0.7-4.1C1.5,30.3,3.3,30,4.7,31L50,63l45.3-32
	c1.3-0.9,3.2-0.6,4.1,0.7c0.9,1.3,0.6,3.2-0.7,4.1L51.7,69C51.2,69.4,50.6,69.6,50,69.6z"/>
</svg>
