<?xml version="1.0" encoding="UTF-8"?>
<!-- Generator: Adobe Illustrator 20.0.0, SVG Export Plug-In . SVG Version: 6.00 Build 0)  -->
<!DOCTYPE svg PUBLIC "-//W3C//DTD SVG 1.1//EN" "http://www.w3.org/Graphics/SVG/1.1/DTD/svg11.dtd">
<svg version="1.1" id="Layer_1" xmlns="http://www.w3.org/2000/svg" xmlns:xlink="http://www.w3.org/1999/xlink" x="0px" y="0px" width="192px" height="35px" viewBox="0 0 192 35" style="enable-background:new 0 0 192 35;" xml:space="preserve">
<style type="text/css">
	.st0{fill:#616161;}
</style>
<g>
	<path class="st0" d="M5.5,5.5v2.9H8v1.9H5.5v4.5c0,1.2,0.3,1.9,1.3,1.9c0.4,0,0.8-0.1,1-0.1v2c-0.4,0.1-1.1,0.3-1.9,0.3   c-0.9,0-1.7-0.3-2.2-0.8c-0.5-0.6-0.8-1.5-0.8-2.9v-4.8H1.5v-2H3V6.1L5.5,5.5z"/>
	<path class="st0" d="M9.7,3.7h2.6v6.1l0,0c0.3-0.5,0.7-0.9,1.3-1.2c0.5-0.3,1.1-0.5,1.8-0.5c1.7,0,3.6,1.2,3.6,4.4v6h-2.6v-5.7   c0-1.5-0.5-2.6-2-2.6c-1,0-1.7,0.7-2,1.5c-0.1,0.2-0.1,0.5-0.1,0.8v6.1H9.7V3.7z"/>
	<path class="st0" d="M23.3,14.3c0.1,1.9,1.5,2.7,3.2,2.7c1.2,0,2.1-0.2,2.8-0.5l0.4,1.8c-0.9,0.4-2.1,0.6-3.6,0.6   c-3.3,0-5.3-2-5.3-5.2c0-2.8,1.7-5.5,5-5.5s4.4,2.7,4.4,5c0,0.5,0,0.9-0.1,1.1H23.3z M27.8,12.5c0-0.9-0.4-2.5-2.1-2.5   c-1.6,0-2.3,1.5-2.4,2.5H27.8z"/>
	<path class="st0" d="M35.4,2.2c1.4-0.3,4-0.5,6.5-0.5c3.3,0,5.3,0.4,7,1.6c1.5,0.9,2.5,2.5,2.5,4.5c0,2.2-1.4,4.3-4,5.3v0.1   c2.6,0.6,4.9,2.7,4.9,6c0,2.2-0.9,3.9-2.3,5c-1.7,1.5-4.6,2.3-9,2.3c-2.5,0-4.3-0.2-5.4-0.3v-24C35.6,2.2,35.4,2.2,35.4,2.2z    M39.8,11.8h2.3c3.1,0,4.8-1.4,4.8-3.5C46.9,6,45.1,5,42.3,5c-1.3,0-2,0-2.5,0.1V11.8z M39.8,23c0.6,0.1,1.3,0.1,2.3,0.1   c2.9,0,5.4-1.1,5.4-4.1c0-2.8-2.5-4-5.5-4h-2.2V23z"/>
	<path class="st0" d="M60.4,3.7c0,1.3-1,2.4-2.5,2.4s-2.5-1-2.5-2.4s1-2.4,2.5-2.4C59.4,1.3,60.3,2.3,60.4,3.7z M55.6,26.2V8.6h4.5   v17.6H55.6z"/>
	<path class="st0" d="M80.6,8.6c-0.1,1.2-0.1,2.6-0.1,5.1v10c0,3.7-0.8,6.3-2.6,8c-1.8,1.6-4.4,2.1-6.8,2.1c-2.2,0-4.6-0.5-6.1-1.4   l1-3.4c1.1,0.6,3,1.3,5.1,1.3c2.9,0,5.1-1.5,5.1-5.3v-1.5H76c-1,1.6-2.8,2.6-5.1,2.6c-4.4,0-7.5-3.6-7.5-8.6c0-5.8,3.8-9.3,8-9.3   c2.7,0,4.3,1.3,5.1,2.7h0.1l0.2-2.3C76.8,8.6,80.6,8.6,80.6,8.6z M76,15.6c0-0.4,0-0.8-0.1-1.2c-0.5-1.6-1.7-2.9-3.6-2.9   c-2.5,0-4.3,2.2-4.3,5.7c0,3,1.5,5.4,4.3,5.4c1.7,0,3.1-1.1,3.6-2.7c0.1-0.5,0.2-1.1,0.2-1.6L76,15.6L76,15.6z"/>
	<path class="st0" d="M86.4,2.2c1.6-0.3,3.8-0.5,6.8-0.5c3.2,0,5.6,0.7,7.2,2c1.4,1.2,2.4,3.1,2.4,5.4s-0.7,4.2-2.1,5.5   c-1.8,1.8-4.5,2.6-7.7,2.6c-0.8,0-1.6,0-2.2-0.1v9.2h-4.4C86.4,26.3,86.4,2.2,86.4,2.2z M90.8,13.5c0.5,0.1,1.3,0.2,2.2,0.2   c3.3,0,5.3-1.6,5.3-4.5c0-2.7-1.9-4.1-4.9-4.1c-1.2,0-2.1,0.1-2.6,0.2V13.5z"/>
	<path class="st0" d="M110.4,3.7c0,1.3-1,2.4-2.5,2.4s-2.5-1-2.5-2.4s1-2.4,2.5-2.4C109.4,1.3,110.3,2.3,110.4,3.7z M105.6,26.2V8.6   h4.5v17.6H105.6z"/>
	<path class="st0" d="M127.4,25.6c-0.9,0.4-2.8,0.9-5,0.9c-5.5,0-9.1-3.5-9.1-8.9c0-5.3,3.6-9.4,9.8-9.4c1.6,0,3.3,0.4,4.3,0.8   l-0.8,3.3c-0.7-0.3-1.8-0.7-3.4-0.7c-3.4,0-5.4,2.5-5.4,5.7c0,3.6,2.3,5.7,5.4,5.7c1.6,0,2.6-0.3,3.5-0.7L127.4,25.6z"/>
	<path class="st0" d="M136,3.6v5h4.2v3.3H136v7.8c0,2.1,0.6,3.2,2.3,3.2c0.8,0,1.3-0.1,1.7-0.2l0.1,3.4c-0.6,0.3-1.8,0.4-3.2,0.4   c-1.6,0-3-0.5-3.8-1.4c-0.9-1-1.4-2.6-1.4-4.9v-8.3h-2.5V8.6h2.5v-4L136,3.6z"/>
	<path class="st0" d="M158.9,20.9c0,2.1,0.1,3.8,0.1,5.3h-3.9l-0.2-2.7h-0.1c-0.8,1.3-2.5,3.1-5.6,3.1c-3.2,0-6.1-1.9-6.1-7.6V8.6   h4.4v9.6c0,2.9,0.9,4.8,3.3,4.8c1.8,0,2.9-1.3,3.4-2.4c0.1-0.4,0.3-0.9,0.3-1.4V8.6h4.4L158.9,20.9L158.9,20.9z"/>
	<path class="st0" d="M163.3,14.3c0-2.4,0-4.1-0.1-5.7h3.9l0.1,3.4h0.1c0.9-2.5,2.9-3.8,4.8-3.8c0.4,0,0.7,0,1,0.1v4.2   c-0.4-0.1-0.8-0.1-1.3-0.1c-2.1,0-3.6,1.4-4,3.4c-0.1,0.4-0.1,0.9-0.1,1.4v9.1h-4.4V14.3z"/>
	<path class="st0" d="M178.6,18.6c0.1,3.2,2.6,4.5,5.4,4.5c2.1,0,3.5-0.3,4.9-0.8l0.6,3.1c-1.5,0.6-3.6,1.1-6.1,1.1   c-5.7,0-9.1-3.5-9.1-8.9c0-4.9,3-9.5,8.6-9.5c5.7,0,7.6,4.7,7.6,8.6c0,0.8-0.1,1.5-0.1,1.9C190.4,18.6,178.6,18.6,178.6,18.6z    M186.4,15.5c0-1.6-0.7-4.3-3.6-4.3c-2.7,0-3.9,2.5-4.1,4.3H186.4z"/>
</g>
</svg>