<?xml version="1.0" encoding="utf-8"?>
<!-- Generator: Adobe Illustrator 19.1.0, SVG Export Plug-In . SVG Version: 6.00 Build 0)  -->
<!DOCTYPE svg PUBLIC "-//W3C//DTD SVG 1.1//EN" "http://www.w3.org/Graphics/SVG/1.1/DTD/svg11.dtd">
<svg version="1.1" id="Layer_1" xmlns="http://www.w3.org/2000/svg" xmlns:xlink="http://www.w3.org/1999/xlink" x="0px" y="0px"
	 width="50px" height="50px" viewBox="-240 296 50 50" style="enable-background:new -240 296 50 50;" xml:space="preserve">
<style type="text/css">
	.st0{fill:none;}
	.st1{fill:#7BC2FF;}
</style>
<path class="st0" d="M-227,309h24v24h-24V309z"/>
<path class="st1" d="M-211.8,296c0,0,1.9,6.1,1.9,11.3c0,4.7-3.3,9.1-8,9.1s-8.5-3.6-8.5-9.1v-0.8c-4.7,5.6-7.5,13.2-7.5,20.8
	c0,10.4,8.5,18.8,18.8,18.8c10.3,0,18.9-8.4,18.9-18.8C-196.1,315.1-202.2,303.5-211.8,296z M-216.2,339.6c-4.4,0-7.5-3.3-7.5-7.5
	c0-3.6,2.4-6.7,6.7-7.5s8.5-2.8,10.8-6.1c0.8,2.8,1.5,6.1,1.5,9.6C-204.6,334.3-209.4,339.6-216.2,339.6z"/>
</svg>
