<?xml version="1.0" encoding="utf-8"?>
<!-- Generator: Adobe Illustrator 19.1.0, SVG Export Plug-In . SVG Version: 6.00 Build 0)  -->
<!DOCTYPE svg PUBLIC "-//W3C//DTD SVG 1.1//EN" "http://www.w3.org/Graphics/SVG/1.1/DTD/svg11.dtd">
<svg version="1.1" id="Layer_1" xmlns="http://www.w3.org/2000/svg" xmlns:xlink="http://www.w3.org/1999/xlink" x="0px" y="0px"
	 width="50px" height="50px" viewBox="-214 296 50 50" style="enable-background:new -214 296 50 50;" xml:space="preserve">
<style type="text/css">
	.st0{fill:none;}
	.st1{fill:#7BC2FF;}
</style>
<path class="st0" d="M-441,605h24v24h-24V605z"/>
<path class="st1" d="M-196.5,343.5c0,1.4,1.1,2.5,2.5,2.5h10c1.4,0,2.5-1.1,2.5-2.5V341h-15V343.5z M-189,296
	c-9.6,0-17.5,7.9-17.5,17.5c0,6,3,11.2,7.5,14.4v5.6c0,1.4,1.1,2.5,2.5,2.5h15c1.4,0,2.5-1.1,2.5-2.5v-5.6c4.5-3.2,7.5-8.4,7.5-14.4
	C-171.5,303.9-179.4,296-189,296z M-181.9,323.8l-2.1,1.5v5.8h-10v-5.8l-2.1-1.5c-3.4-2.4-5.4-6.2-5.4-10.2
	c0-6.9,5.6-12.5,12.5-12.5s12.5,5.6,12.5,12.5C-176.5,317.6-178.5,321.4-181.9,323.8z"/>
</svg>
