<?xml version="1.0" encoding="utf-8"?>
<!-- Generator: Adobe Illustrator 18.1.1, SVG Export Plug-In . SVG Version: 6.00 Build 0)  -->
<!DOCTYPE svg PUBLIC "-//W3C//DTD SVG 1.1//EN" "http://www.w3.org/Graphics/SVG/1.1/DTD/svg11.dtd">
<svg version="1.1" id="Layer_1" xmlns="http://www.w3.org/2000/svg" xmlns:xlink="http://www.w3.org/1999/xlink" x="0px" y="0px"
	 width="24px" height="24px" viewBox="-627 389 24 24" enable-background="new -627 389 24 24" xml:space="preserve">
<path fill="none" d="M-627,389h24v24h-24V389z"/>
<path d="M-614,396h-2v4h-4v2h4v4h2v-4h4v-2h-4V396z M-615,391c-5.5,0-10,4.5-10,10s4.5,10,10,10s10-4.5,10-10S-609.5,391-615,391z
	 M-615,409c-4.4,0-8-3.6-8-8s3.6-8,8-8s8,3.6,8,8S-610.6,409-615,409z"/>
</svg>
